217.118.83.129/32
217.118.64.34/31
217.118.64.33/32
217.118.90.254/32
217.118.90.252/31
217.118.90.248/30
217.118.90.240/29
217.118.90.224/28
217.118.90.192/27
217.118.90.128/26
217.118.90.64/26
217.118.90.32/27
217.118.90.16/28
217.118.90.8/29
217.118.64.36/30
217.118.64.40/30
217.118.64.44/31
85.115.248.254/32
85.115.248.252/31
85.115.248.248/30
85.115.248.240/29
85.115.248.224/28
85.115.248.192/27
85.115.248.160/27
85.115.248.144/28
85.115.248.136/29
85.115.248.132/30
85.115.248.130/31
85.115.248.129/32
217.118.64.46/32
217.118.90.4/30
217.118.90.2/31
217.118.90.1/32
217.118.92.254/32
217.118.92.252/31
217.118.92.248/30
217.118.92.240/29
217.118.92.224/28
217.118.92.192/27
217.118.92.128/26
217.118.92.64/26
217.118.92.32/27
217.118.92.16/28
217.118.92.8/29
217.118.92.4/30
217.118.92.2/31
217.118.79.33/32
217.118.79.34/31
217.118.79.36/30
217.118.91.126/32
217.118.91.124/31
217.118.91.120/30
217.118.91.112/29
217.118.91.96/28
217.118.91.80/28
217.118.91.72/29
217.118.91.68/30
217.118.91.66/31
217.118.91.65/32
217.118.79.46/32
217.118.79.44/31
217.118.79.40/30
217.118.92.1/32
217.118.83.130/31
217.118.92.0/24
85.115.243.33/32
217.148.194.142/32
217.148.194.140/31
217.148.194.136/30
217.148.194.132/30
217.148.194.130/31
217.148.194.129/32
85.115.224.254/32
85.115.224.252/31
85.115.224.248/30
85.115.224.240/29
85.115.224.232/29
85.115.224.228/30
85.115.243.34/31
85.115.243.36/30
85.115.243.40/29
85.115.248.192/26
85.115.248.64/26
85.115.248.128/26
217.118.93.0/24
85.115.248.0/26
217.118.64.48/28
217.118.91.0/24
217.118.79.0/24
217.118.78.0/24
85.115.243.62/32
85.115.243.60/31
85.115.243.56/30
85.115.243.48/29
85.115.224.226/31
85.115.224.225/32
85.115.224.222/32
217.118.93.112/29
217.118.93.104/29
217.118.93.96/29
217.118.93.80/28
217.118.83.254/32
217.118.83.252/31
217.118.83.248/30
217.118.83.240/29
217.118.83.224/28
217.118.83.192/27
217.118.83.160/27
217.118.83.144/28
217.118.83.136/29
217.118.93.120/30
217.118.93.124/31
217.118.93.126/32
85.115.224.220/31
85.115.224.216/30
85.115.224.208/29
85.115.224.200/29
85.115.224.196/30
85.115.224.194/31
85.115.224.193/32
85.115.224.10/32
217.118.95.80/28
217.118.95.72/29
217.118.95.68/30
217.118.95.66/31
217.118.95.65/32
217.118.83.132/30
217.118.78.254/32
85.115.235.128/26
83.220.239.0/25
83.220.238.0/24
83.220.237.0/24
83.220.236.128/25
83.220.236.64/26
83.220.236.32/27
83.220.236.16/28
83.220.236.8/29
83.220.236.4/30
83.220.236.2/31
83.220.236.1/32
217.118.64.128/25
85.115.226.0/23
83.220.239.128/26
83.220.239.192/27
83.220.239.224/28
85.115.235.0/25
85.115.234.128/25
85.115.234.64/26
85.115.234.32/27
85.115.234.16/28
85.115.234.8/29
85.115.234.4/30
85.115.234.2/31
85.115.234.1/32
83.220.239.254/32
83.220.239.252/31
83.220.239.248/30
83.220.239.240/29
217.118.81.0/24
217.118.92.0/23
217.118.91.255/32
217.118.82.16/28
217.118.82.32/28
217.118.82.64/26
217.118.83.0/24
217.118.85.0/24
217.118.89.0/24
217.118.90.0/24
217.118.91.64/26
46.16.96.0/21
62.33.151.0/24
83.220.227.0/24
85.115.224.128/27
85.115.224.9/32
217.118.66.0/24
217.118.64.32/27
85.115.234.0/23
217.118.91.0/32
217.118.80.0/23
217.118.78.0/23
85.115.243.0/24
85.115.224.12/31
85.115.224.10/31
217.118.82.128/25
85.115.224.192/26
85.115.224.14/32
31.13.144.0/26
217.148.194.128/28
217.118.95.0/24
83.220.236.0/22
85.115.248.0/24
85.115.235.192/27
217.118.78.252/31
217.118.81.224/28
217.118.81.208/28
217.118.81.200/29
217.118.81.196/30
217.118.81.194/31
217.118.81.193/32
217.118.81.62/32
217.118.81.60/31
217.118.81.56/30
217.118.81.48/29
217.118.81.40/29
217.118.81.36/30
217.118.81.34/31
217.118.81.240/29
217.118.81.248/30
217.118.81.252/31
217.118.78.248/30
217.118.78.240/29
217.118.78.224/28
217.118.78.192/27
217.118.78.128/26
217.118.78.64/26
217.118.78.32/27
217.118.78.16/28
217.118.78.8/29
217.118.78.4/30
217.118.78.2/31
217.118.78.1/32
217.118.81.254/32
217.118.81.33/32
217.118.66.142/32
217.118.66.140/31
217.118.66.100/31
217.118.66.96/30
217.118.66.64/27
217.118.66.32/27
217.118.66.16/28
217.118.66.8/29
217.118.66.4/30
217.118.66.2/31
217.118.66.1/32
85.115.235.254/32
85.115.235.252/31
85.115.235.248/30
85.115.235.240/29
217.118.66.145/32
217.118.66.146/31
217.118.66.148/30
217.118.66.136/30
217.118.66.128/29
217.118.66.112/28
217.118.66.104/29
217.118.66.102/31
217.118.66.254/32
217.118.66.252/31
217.118.66.248/30
217.118.66.240/29
217.118.66.224/28
217.118.66.192/27
217.118.66.160/27
217.118.66.152/29
85.115.235.224/28
